module github.com/tickstep/aliyunpan

go 1.16

require (
	github.com/GeertJohan/go.incremental v1.0.0
	github.com/boltdb/bolt v1.3.1 // indirect
	github.com/deckarep/golang-set v1.8.0
	github.com/dop251/goja v0.0.0-20220408131256-ffe77e20c6f1
	github.com/json-iterator/go v1.1.12
	github.com/kardianos/osext v0.0.0-20170510131534-ae77be60afb1
	github.com/modern-go/concurrent v0.0.0-20180306012644-bacd9c7ef1dd // indirect
	github.com/oleiade/lane v0.0.0-20160817071224-3053869314bb
	github.com/olekukonko/tablewriter v0.0.2-0.20190618033246-cc27d85e17ce
	github.com/peterh/liner v1.2.1
	github.com/satori/go.uuid v1.2.0
	github.com/tickstep/aliyunpan-api v0.1.0
	github.com/tickstep/bolt v1.3.3
	github.com/tickstep/library-go v0.0.5
	github.com/urfave/cli v1.21.1-0.20190817182405-23c83030263f
	golang.org/x/crypto v0.0.0-20210513164829-c07d793c2f9a
	golang.org/x/net v0.0.0-20210614182718-04defd469f4e
)

//replace github.com/tickstep/bolt => /Users/tickstep/Documents/Workspace/go/projects/bolt
//replace github.com/tickstep/library-go => /Users/tickstep/Documents/Workspace/go/projects/library-go
//replace github.com/tickstep/aliyunpan-api => /Users/tickstep/Documents/Workspace/go/projects/aliyunpan-api
